dsdLab/Lab7-MultiplexerApplications/Q2-3InputMajorityFunction/Part1/q2a_tb.vcd
$date
	Sun Oct 16 19:54:44 2022
$end
$version
	Icarus Verilog
$end
$timescale
	1ns
$end
$scope module q1a_tb $end
$var wire 1 ! f $end
$var reg 3 " w [2:0] $end
$scope module q $end
$var wire 3 # w [2:0] $end
$var wire 1 ! f $end
$scope module stage0 $end
$var wire 1 $ s $end
$var wire 2 % w [1:0] $end
$var reg 1 ! f $end
$upscope $end
$upscope $end
$upscope $end
$enddefinitions $end
#0
$dumpvars
b0 %
0$
b0 #
b0 "
0!
$end
#20
0!
b1 %
b1 "
b1 #
#40
0!
b10 %
b10 "
b10 #
#60
1!
b11 %
b11 "
b11 #
#80
0!
b0 %
1$
b100 "
b100 #
#100
1!
b1 %
b101 "
b101 #
#120
b10 %
b110 "
b110 #
#140
b11 %
b111 "
b111 #
